{
  "fixbv": {
    "wl": 9,
    "iwl": 2,
    "fwl": 6
  },
  "other": {
    "sth": false
  },
  "project_name": "dl2hdl",
  "paths": {
    "out_vhdl": "/home/michal/agh/workspace/LANA/dl2hdl/out/vhdl",
    "out_verilog": "/home/michal/agh/workspace/LANA/dl2hdl/out/verilog",
    "out_testbench": "/home/michal/agh/workspace/LANA/dl2hdl/out/testbench",
    "out_model": "/home/michal/agh/workspace/LANA/dl2hdl/out/model",
    "out_data": "/home/michal/agh/workspace/LANA/dl2hdl/out/data",
    "data_cern_quench": "/home/michal/agh/data/cern/quench"
  }
}